<?xml version="1.0" encoding="UTF-8"?>
<!DOCTYPE svg PUBLIC "-//W3C//DTD SVG 1.1//EN" "http://www.w3.org/Graphics/SVG/1.1/DTD/svg11.dtd">
<!-- Creator: CorelDRAW X7 -->
<svg xmlns="http://www.w3.org/2000/svg" xml:space="preserve" width="60mm" height="90mm" version="1.1" style="shape-rendering:geometricPrecision; text-rendering:geometricPrecision; image-rendering:optimizeQuality; fill-rule:evenodd; clip-rule:evenodd"
viewBox="0 0 6000 9000"
 xmlns:xlink="http://www.w3.org/1999/xlink">
 <defs>
  <style type="text/css">
   <![CDATA[
    .str0 {stroke:#2B2A29;stroke-width:20}
    .fil0 {fill:none}
    .fil2 {fill:#FEFEFE}
    .fil3 {fill:#E31E24}
    .fil1 {fill:#2B2A29;fill-opacity:0.501961}
   ]]>
  </style>
 </defs>
 <g id="Layer_x0020_1">
  <metadata id="CorelCorpID_0Corel-Layer"/>
  <g id="_1730558636992">
   <polygon class="fil0" points="0,0 6000,0 6000,9000 0,9000 "/>
   <path class="fil1" d="M760 350l4680 0c225,0 410,185 410,410l0 7680c0,225 -185,410 -410,410l-4680 0c-225,0 -410,-185 -410,-410l0 -7680c0,-225 185,-410 410,-410z"/>
  </g>
  <path class="fil2 str0" d="M660 250l4680 0c225,0 410,185 410,410l0 7680c0,225 -185,410 -410,410l-4680 0c-225,0 -410,-185 -410,-410l0 -7680c0,-225 185,-410 410,-410z"/>
  <path class="fil3" d="M923 562l0 103 -158 0 0 203c18,-27 43,-40 73,-40 35,0 65,20 93,61 27,41 41,104 44,188 3,106 -11,182 -43,228 -33,46 -70,70 -113,73 -40,3 -72,-11 -97,-42 -25,-30 -38,-70 -40,-118 0,-35 6,-61 17,-77 11,-15 23,-23 36,-23 14,0 26,6 37,19 11,13 16,31 16,56 1,26 -5,48 -17,67 -3,4 -5,9 -6,13 -3,12 1,22 11,32 11,9 24,13 39,10 31,-5 50,-29 57,-70 8,-42 10,-93 9,-153 -2,-54 -7,-100 -17,-137 -10,-37 -30,-53 -61,-50 -14,1 -25,8 -34,22 -3,4 -7,16 -12,35 -3,6 -6,14 -8,25l-51 0 10 -425 215 0z"/>
  <path class="fil3" d="M5077 8440l0 -103 158 0 0 -203c-18,27 -43,41 -73,41 -35,0 -65,-21 -93,-62 -27,-41 -41,-103 -44,-188 -3,-106 11,-182 43,-228 33,-46 70,-70 113,-73 40,-2 72,12 97,42 25,31 38,70 40,118 0,35 -6,61 -17,77 -11,16 -23,24 -36,24 -14,0 -26,-7 -37,-20 -11,-12 -16,-31 -16,-56 -1,-26 5,-48 17,-67 3,-4 5,-9 6,-13 3,-11 -1,-22 -11,-31 -11,-10 -24,-13 -39,-11 -31,5 -50,29 -57,71 -8,41 -10,92 -9,153 2,54 7,99 17,136 10,37 30,54 61,50 14,-1 25,-8 34,-22 3,-4 7,-16 12,-35 3,-6 6,-14 8,-24l51 0 -10 424 -215 0z"/>
  <path class="fil3" d="M818 2139c-6,-26 -17,-54 -32,-84 -14,-30 -34,-62 -58,-98 -22,-34 -48,-71 -79,-111 -32,-40 -50,-63 -55,-70 -24,-35 -40,-63 -48,-85 -9,-22 -13,-45 -13,-69 0,-39 13,-72 38,-98 25,-25 57,-38 96,-38 36,0 67,11 92,32 25,21 45,52 59,95 15,-43 34,-74 59,-95 25,-21 56,-32 92,-32 40,0 72,13 97,38 24,26 37,58 37,98 0,21 -4,42 -11,62 -6,20 -18,43 -34,68 -10,16 -33,46 -68,91 -34,44 -62,82 -83,114 -23,34 -42,66 -57,97 -14,30 -25,58 -32,85z"/>
  <path class="fil3" d="M5182 6863c6,27 17,55 32,85 14,30 34,62 58,98 22,34 48,71 79,111 32,39 50,63 55,70 24,35 40,63 48,85 9,22 13,45 13,68 0,40 -13,73 -38,98 -25,26 -57,39 -96,39 -36,0 -67,-11 -92,-32 -25,-21 -45,-52 -59,-95 -15,43 -34,74 -59,95 -25,21 -56,32 -92,32 -40,0 -72,-13 -97,-38 -24,-26 -37,-58 -37,-99 0,-20 4,-41 11,-61 6,-20 18,-43 34,-68 10,-16 33,-46 68,-91 34,-44 62,-82 83,-114 23,-34 42,-66 57,-97 14,-30 25,-58 32,-86z"/>
  <path class="fil3" d="M1856 2069c-12,-47 -31,-98 -58,-152 -26,-53 -61,-113 -104,-177 -40,-61 -88,-128 -144,-199 -56,-72 -89,-115 -98,-128 -44,-62 -73,-113 -88,-153 -15,-40 -22,-81 -22,-123 0,-72 23,-131 67,-177 45,-46 103,-69 174,-69 65,0 120,19 166,57 45,38 80,95 107,172 26,-77 61,-134 106,-172 45,-38 101,-57 166,-57 71,0 129,23 174,69 44,46 67,105 67,177 0,37 -6,74 -19,111 -12,37 -33,78 -62,123 -18,28 -59,83 -122,163 -63,81 -113,149 -151,206 -41,62 -75,120 -101,174 -27,55 -46,106 -58,155z"/>
  <path class="fil3" d="M4135 2069c-12,-47 -31,-98 -58,-152 -26,-53 -61,-113 -104,-177 -40,-61 -88,-128 -144,-199 -57,-72 -89,-115 -99,-128 -43,-62 -72,-113 -87,-153 -15,-40 -22,-81 -22,-123 0,-72 22,-131 67,-177 45,-46 103,-69 174,-69 65,0 120,19 166,57 45,38 80,95 107,172 26,-77 61,-134 106,-172 45,-38 101,-57 166,-57 71,0 129,23 174,69 44,46 67,105 67,177 0,37 -6,74 -19,111 -12,37 -33,78 -62,123 -18,28 -59,83 -122,163 -63,81 -113,149 -151,206 -41,62 -75,120 -101,174 -27,55 -46,106 -58,155z"/>
  <path class="fil3" d="M3000 5089c-12,-48 -31,-99 -57,-152 -26,-54 -61,-113 -104,-178 -41,-61 -89,-127 -145,-199 -56,-72 -89,-114 -98,-127 -43,-62 -72,-113 -87,-153 -15,-40 -22,-81 -22,-123 0,-72 22,-131 67,-177 45,-46 103,-69 173,-69 66,0 121,19 166,57 45,38 81,95 107,171 26,-76 62,-133 107,-171 45,-38 100,-57 166,-57 71,0 129,23 173,69 45,46 67,104 67,177 0,37 -6,74 -18,111 -13,36 -33,77 -62,122 -19,29 -60,84 -122,164 -63,80 -113,149 -151,205 -41,62 -75,120 -102,175 -26,55 -46,106 -58,155z"/>
  <path class="fil3" d="M1855 6931c12,47 31,98 58,152 26,53 61,113 104,177 40,61 88,128 144,199 56,72 89,115 98,128 44,62 73,113 88,153 15,40 22,81 22,123 0,72 -23,131 -68,177 -44,46 -102,69 -173,69 -65,0 -121,-19 -166,-57 -45,-38 -81,-95 -107,-172 -26,77 -61,134 -106,172 -45,38 -101,57 -166,57 -71,0 -129,-23 -174,-69 -44,-46 -67,-105 -67,-177 0,-37 6,-74 19,-111 12,-37 33,-78 62,-123 18,-28 59,-83 122,-163 63,-81 113,-149 151,-206 41,-62 75,-120 101,-174 27,-55 46,-106 58,-155z"/>
  <path class="fil3" d="M4134 6931c12,47 31,98 57,152 27,53 62,113 105,177 40,61 88,128 144,199 56,72 89,115 98,128 44,62 73,113 88,153 14,40 22,81 22,123 0,72 -23,131 -68,177 -45,46 -102,69 -173,69 -65,0 -121,-19 -166,-57 -45,-38 -81,-95 -107,-172 -26,77 -61,134 -106,172 -46,38 -101,57 -166,57 -72,0 -129,-23 -174,-69 -45,-46 -67,-105 -67,-177 0,-37 6,-74 19,-111 12,-37 33,-78 62,-123 18,-28 59,-83 122,-163 62,-81 113,-149 151,-206 41,-62 74,-120 101,-174 27,-55 46,-106 58,-155z"/>
 </g>
</svg>
