<?xml version="1.0" encoding="UTF-8"?>
<!DOCTYPE svg PUBLIC "-//W3C//DTD SVG 1.1//EN" "http://www.w3.org/Graphics/SVG/1.1/DTD/svg11.dtd">
<!-- Creator: CorelDRAW X7 -->
<svg xmlns="http://www.w3.org/2000/svg" xml:space="preserve" width="60mm" height="90mm" version="1.1" style="shape-rendering:geometricPrecision; text-rendering:geometricPrecision; image-rendering:optimizeQuality; fill-rule:evenodd; clip-rule:evenodd"
viewBox="0 0 6000 9000"
 xmlns:xlink="http://www.w3.org/1999/xlink">
 <defs>
  <style type="text/css">
   <![CDATA[
    .str0 {stroke:#2B2A29;stroke-width:20}
    .fil0 {fill:none}
    .fil2 {fill:#FEFEFE}
    .fil3 {fill:#E31E24}
    .fil1 {fill:#2B2A29;fill-opacity:0.501961}
   ]]>
  </style>
 </defs>
 <g id="Layer_x0020_1">
  <metadata id="CorelCorpID_0Corel-Layer"/>
  <g id="_1730480076768">
   <polygon class="fil0" points="0,0 6000,0 6000,9000 0,9000 "/>
   <path class="fil1" d="M760 350l4680 0c225,0 410,185 410,410l0 7680c0,225 -185,410 -410,410l-4680 0c-225,0 -410,-185 -410,-410l0 -7680c0,-225 185,-410 410,-410z"/>
  </g>
  <path class="fil2 str0" d="M660 250l4680 0c225,0 410,185 410,410l0 7680c0,225 -185,410 -410,410l-4680 0c-225,0 -410,-185 -410,-410l0 -7680c0,-225 185,-410 410,-410z"/>
  <path class="fil3" d="M767 935c-54,-31 -81,-88 -83,-172 0,-68 14,-121 41,-160 27,-38 62,-58 104,-58 28,0 53,9 76,26 23,17 41,42 53,75 12,33 17,72 17,117 -1,84 -28,141 -81,172 67,34 100,105 99,214 -1,97 -19,159 -55,188 -36,28 -72,43 -108,43 -35,0 -71,-15 -106,-43 -35,-28 -54,-91 -56,-188 -2,-111 31,-183 99,-214zm63 386c29,-1 48,-15 57,-44 8,-28 12,-72 12,-133 1,-122 -22,-183 -69,-183 -30,0 -49,17 -57,50 -8,34 -12,78 -12,133 0,61 5,105 14,133 9,29 27,43 55,44zm0 -411c27,0 44,-15 51,-45 8,-29 10,-65 9,-107 0,-56 -5,-95 -14,-117 -9,-22 -24,-34 -46,-34 -22,0 -37,12 -46,35 -8,23 -13,61 -14,116 0,43 4,80 11,109 7,28 23,43 49,43z"/>
  <path class="fil3" d="M5233 8067c54,31 81,89 83,172 0,68 -14,121 -41,160 -27,39 -62,58 -104,58 -28,0 -53,-9 -76,-25 -23,-17 -41,-42 -53,-76 -12,-33 -17,-72 -17,-117 1,-83 28,-141 81,-172 -67,-33 -100,-105 -99,-214 1,-96 19,-159 55,-187 36,-29 72,-43 108,-43 35,0 71,14 106,42 35,28 54,91 56,188 2,111 -31,183 -99,214zm-63 -386c-29,1 -48,16 -57,44 -8,28 -12,73 -12,134 -1,122 22,183 69,183 30,0 49,-17 57,-51 8,-33 12,-77 12,-132 0,-61 -5,-106 -14,-134 -9,-28 -27,-43 -55,-44zm0 411c-27,0 -44,15 -51,45 -8,30 -10,66 -9,108 0,55 5,94 14,117 9,22 24,33 46,33 22,0 37,-12 46,-35 8,-23 13,-61 14,-115 0,-44 -4,-80 -11,-109 -7,-29 -23,-44 -49,-44z"/>
  <path class="fil3" d="M818 2139c-6,-26 -17,-54 -32,-84 -14,-30 -34,-62 -58,-98 -22,-34 -48,-71 -79,-111 -32,-40 -50,-63 -55,-70 -24,-35 -40,-63 -48,-85 -9,-22 -13,-45 -13,-69 0,-39 13,-72 38,-98 25,-25 57,-38 96,-38 36,0 67,11 92,32 25,21 45,52 59,95 15,-43 34,-74 59,-95 25,-21 56,-32 92,-32 40,0 72,13 97,38 24,26 37,58 37,98 0,21 -4,42 -11,62 -6,20 -18,43 -34,68 -10,16 -33,46 -68,91 -34,44 -62,82 -83,114 -23,34 -42,66 -57,97 -14,30 -25,58 -32,85z"/>
  <path class="fil3" d="M5182 6863c6,27 17,55 32,85 14,30 34,62 58,98 22,34 48,71 79,111 32,39 50,63 55,70 24,35 40,63 48,85 9,22 13,45 13,68 0,40 -13,73 -38,98 -25,26 -57,39 -96,39 -36,0 -67,-11 -92,-32 -25,-21 -45,-52 -59,-95 -15,43 -34,74 -59,95 -25,21 -56,32 -92,32 -40,0 -72,-13 -97,-38 -24,-26 -37,-58 -37,-99 0,-20 4,-41 11,-61 6,-20 18,-43 34,-68 10,-16 33,-46 68,-91 34,-44 62,-82 83,-114 23,-34 42,-66 57,-97 14,-30 25,-58 32,-86z"/>
  <path class="fil3" d="M1856 2069c-12,-47 -31,-98 -58,-152 -26,-53 -61,-113 -104,-177 -40,-61 -88,-128 -144,-199 -56,-72 -89,-115 -98,-128 -44,-62 -73,-113 -88,-153 -15,-40 -22,-81 -22,-123 0,-72 23,-131 67,-177 45,-46 103,-69 174,-69 65,0 120,19 166,57 45,38 80,95 107,172 26,-77 61,-134 106,-172 45,-38 101,-57 166,-57 71,0 129,23 174,69 44,46 67,105 67,177 0,37 -6,74 -19,111 -12,37 -33,78 -62,123 -18,28 -59,83 -122,163 -63,81 -113,149 -151,206 -41,62 -75,120 -101,174 -27,55 -46,106 -58,155z"/>
  <path class="fil3" d="M4135 2069c-12,-47 -31,-98 -58,-152 -26,-53 -61,-113 -104,-177 -40,-61 -88,-128 -144,-199 -57,-72 -89,-115 -99,-128 -43,-62 -72,-113 -87,-153 -15,-40 -22,-81 -22,-123 0,-72 22,-131 67,-177 45,-46 103,-69 174,-69 65,0 120,19 166,57 45,38 80,95 107,172 26,-77 61,-134 106,-172 45,-38 101,-57 166,-57 71,0 129,23 174,69 44,46 67,105 67,177 0,37 -6,74 -19,111 -12,37 -33,78 -62,123 -18,28 -59,83 -122,163 -63,81 -113,149 -151,206 -41,62 -75,120 -101,174 -27,55 -46,106 -58,155z"/>
  <path class="fil3" d="M1856 4207c-12,-48 -31,-99 -58,-153 -26,-53 -61,-112 -104,-177 -40,-61 -88,-127 -144,-199 -56,-72 -89,-114 -98,-128 -44,-61 -73,-112 -88,-152 -15,-40 -22,-82 -22,-124 0,-71 23,-130 67,-176 45,-46 103,-69 174,-69 65,0 120,18 166,56 45,38 80,95 107,172 26,-77 61,-134 106,-172 45,-38 101,-56 166,-56 71,0 129,23 174,68 44,46 67,105 67,177 0,38 -6,75 -19,111 -12,37 -33,78 -62,123 -18,29 -59,83 -122,164 -63,80 -113,148 -151,205 -41,62 -75,120 -101,175 -27,54 -46,106 -58,155z"/>
  <path class="fil3" d="M4135 4207c-12,-48 -31,-99 -58,-153 -26,-53 -61,-112 -104,-177 -40,-61 -88,-127 -144,-199 -57,-72 -89,-114 -99,-128 -43,-61 -72,-112 -87,-152 -15,-40 -22,-82 -22,-124 0,-71 22,-130 67,-176 45,-46 103,-69 174,-69 65,0 120,18 166,56 45,38 80,95 107,172 26,-77 61,-134 106,-172 45,-38 101,-56 166,-56 71,0 129,23 174,68 44,46 67,105 67,177 0,38 -6,75 -19,111 -12,37 -33,78 -62,123 -18,29 -59,83 -122,164 -63,80 -113,148 -151,205 -41,62 -75,120 -101,175 -27,54 -46,106 -58,155z"/>
  <path class="fil3" d="M4134 4794c12,47 31,98 57,152 27,53 62,112 105,177 40,61 88,127 144,199 56,72 89,114 98,128 44,61 73,112 88,152 14,40 22,82 22,124 0,72 -23,130 -68,176 -45,46 -102,69 -173,69 -65,0 -121,-18 -166,-56 -45,-38 -81,-95 -107,-172 -26,77 -61,134 -106,172 -46,38 -101,56 -166,56 -72,0 -129,-23 -174,-68 -45,-46 -67,-105 -67,-177 0,-38 6,-75 19,-111 12,-37 33,-78 62,-123 18,-29 59,-83 122,-164 62,-80 113,-148 151,-205 41,-62 74,-120 101,-175 27,-54 46,-106 58,-154z"/>
  <path class="fil3" d="M1855 4794c12,47 31,98 58,152 26,53 61,112 104,177 40,61 88,127 144,199 56,72 89,114 98,128 44,61 73,112 88,152 15,40 22,82 22,124 0,72 -23,130 -68,176 -44,46 -102,69 -173,69 -65,0 -121,-18 -166,-56 -45,-38 -81,-95 -107,-172 -26,77 -61,134 -106,172 -45,38 -101,56 -166,56 -71,0 -129,-23 -174,-68 -44,-46 -67,-105 -67,-177 0,-38 6,-75 19,-111 12,-37 33,-78 62,-123 18,-29 59,-83 122,-164 63,-80 113,-148 151,-205 41,-62 75,-120 101,-175 27,-54 46,-106 58,-154z"/>
  <path class="fil3" d="M1855 6931c12,47 31,98 58,152 26,53 61,113 104,177 40,61 88,128 144,199 56,72 89,115 98,128 44,62 73,113 88,153 15,40 22,81 22,123 0,72 -23,131 -68,177 -44,46 -102,69 -173,69 -65,0 -121,-19 -166,-57 -45,-38 -81,-95 -107,-172 -26,77 -61,134 -106,172 -45,38 -101,57 -166,57 -71,0 -129,-23 -174,-69 -44,-46 -67,-105 -67,-177 0,-37 6,-74 19,-111 12,-37 33,-78 62,-123 18,-28 59,-83 122,-163 63,-81 113,-149 151,-206 41,-62 75,-120 101,-174 27,-55 46,-106 58,-155z"/>
  <path class="fil3" d="M4134 6931c12,47 31,98 57,152 27,53 62,113 105,177 40,61 88,128 144,199 56,72 89,115 98,128 44,62 73,113 88,153 14,40 22,81 22,123 0,72 -23,131 -68,177 -45,46 -102,69 -173,69 -65,0 -121,-19 -166,-57 -45,-38 -81,-95 -107,-172 -26,77 -61,134 -106,172 -46,38 -101,57 -166,57 -72,0 -129,-23 -174,-69 -45,-46 -67,-105 -67,-177 0,-37 6,-74 19,-111 12,-37 33,-78 62,-123 18,-28 59,-83 122,-163 62,-81 113,-149 151,-206 41,-62 74,-120 101,-174 27,-55 46,-106 58,-155z"/>
 </g>
</svg>
