<?xml version="1.0" encoding="UTF-8"?>
<!DOCTYPE svg PUBLIC "-//W3C//DTD SVG 1.1//EN" "http://www.w3.org/Graphics/SVG/1.1/DTD/svg11.dtd">
<!-- Creator: CorelDRAW X7 -->
<svg xmlns="http://www.w3.org/2000/svg" xml:space="preserve" width="60mm" height="90mm" version="1.1" style="shape-rendering:geometricPrecision; text-rendering:geometricPrecision; image-rendering:optimizeQuality; fill-rule:evenodd; clip-rule:evenodd"
viewBox="0 0 6000 9000"
 xmlns:xlink="http://www.w3.org/1999/xlink">
 <defs>
  <style type="text/css">
   <![CDATA[
    .str0 {stroke:#2B2A29;stroke-width:20}
    .fil0 {fill:none}
    .fil2 {fill:#FEFEFE}
    .fil3 {fill:#E31E24}
    .fil1 {fill:#2B2A29;fill-opacity:0.501961}
   ]]>
  </style>
 </defs>
 <g id="Layer_x0020_1">
  <metadata id="CorelCorpID_0Corel-Layer"/>
  <g id="_1730720255632">
   <polygon class="fil0" points="0,0 6000,0 6000,9000 0,9000 "/>
   <path class="fil1" d="M760 350l4680 0c225,0 410,185 410,410l0 7680c0,225 -185,410 -410,410l-4680 0c-225,0 -410,-185 -410,-410l0 -7680c0,-225 185,-410 410,-410z"/>
  </g>
  <path class="fil2 str0" d="M660 250l4680 0c225,0 410,185 410,410l0 7680c0,225 -185,410 -410,410l-4680 0c-225,0 -410,-185 -410,-410l0 -7680c0,-225 185,-410 410,-410z"/>
  <path class="fil3" d="M890 1161l-159 0 -26 143 51 0 0 58 -164 0 0 -58 41 0 144 -755 90 0 150 755 48 0 0 58 -198 0 0 -58 51 0 -28 -143zm-81 -443l-65 377 135 0 -70 -377z"/>
  <path class="fil3" d="M5110 7842l159 0 26 -144 -51 0 0 -57 164 0 0 57 -41 0 -144 756 -90 0 -150 -756 -48 0 0 -57 198 0 0 57 -51 0 28 144zm81 442l65 -377 -135 0 70 377z"/>
  <path class="fil3" d="M1074 1813c-91,111 -175,227 -256,346 -81,-118 -164,-235 -256,-346 91,-111 176,-228 256,-347 81,119 165,236 256,347z"/>
  <path class="fil3" d="M5438 7190c-91,111 -175,227 -256,346 -81,-118 -165,-235 -256,-346 91,-111 176,-228 256,-346 80,119 165,235 256,346z"/>
  <path class="fil3" d="M4257 4658c-444,547 -861,1119 -1256,1704 -399,-583 -810,-1158 -1258,-1704 448,-545 861,-1119 1258,-1703 395,585 811,1157 1256,1703z"/>
  <path class="fil2" d="M3374 5652c-127,176 -251,354 -373,533 -360,-521 -730,-1035 -1129,-1527 399,-492 771,-1003 1129,-1525 357,522 730,1033 1128,1525 -261,325 -512,656 -755,994z"/>
  <path class="fil3" d="M2630 5486c-204,-280 -412,-557 -630,-828 352,-436 682,-888 1001,-1349 318,461 649,913 999,1349 -350,438 -682,890 -1000,1351 -122,-176 -245,-350 -370,-523z"/>
 </g>
</svg>
