<?xml version="1.0" encoding="UTF-8"?>
<!DOCTYPE svg PUBLIC "-//W3C//DTD SVG 1.1//EN" "http://www.w3.org/Graphics/SVG/1.1/DTD/svg11.dtd">
<!-- Creator: CorelDRAW X7 -->
<svg xmlns="http://www.w3.org/2000/svg" xml:space="preserve" width="60mm" height="90mm" version="1.1" style="shape-rendering:geometricPrecision; text-rendering:geometricPrecision; image-rendering:optimizeQuality; fill-rule:evenodd; clip-rule:evenodd"
viewBox="0 0 6000 9000"
 xmlns:xlink="http://www.w3.org/1999/xlink">
 <defs>
  <style type="text/css">
   <![CDATA[
    .str0 {stroke:#2B2A29;stroke-width:20}
    .fil0 {fill:none}
    .fil2 {fill:#FEFEFE}
    .fil3 {fill:#2B2A29}
    .fil1 {fill:#2B2A29;fill-opacity:0.501961}
   ]]>
  </style>
 </defs>
 <g id="Layer_x0020_1">
  <metadata id="CorelCorpID_0Corel-Layer"/>
  <g id="_1557739217376">
   <polygon class="fil0" points="0,0 6000,0 6000,9000 0,9000 "/>
   <path class="fil1" d="M760 350l4680 0c225,0 410,185 410,410l0 7680c0,225 -185,410 -410,410l-4680 0c-225,0 -410,-185 -410,-410l0 -7680c0,-225 185,-410 410,-410z"/>
  </g>
  <path class="fil2 str0" d="M660 250l4680 0c225,0 410,185 410,410l0 7680c0,225 -185,410 -410,410l-4680 0c-225,0 -410,-185 -410,-410l0 -7680c0,-225 185,-410 410,-410z"/>
  <path class="fil3" d="M890 1161l-159 0 -26 143 51 0 0 58 -164 0 0 -58 41 0 145 -755 89 0 150 755 48 0 0 58 -198 0 0 -58 52 0 -29 -143zm-81 -443l-65 377 135 0 -70 -377z"/>
  <path class="fil3" d="M5110 7842l159 0 26 -144 -51 0 0 -57 164 0 0 57 -41 0 -145 756 -89 0 -150 -756 -48 0 0 -57 198 0 0 57 -52 0 29 144zm81 442l65 -377 -135 0 70 377z"/>
  <path class="fil3" d="M823 1908l0 5c0,71 19,126 56,166 38,39 91,60 161,62l0 22 -444 0 0 -22c70,-2 123,-23 161,-62 38,-40 56,-95 56,-166l0 -5c-20,38 -44,66 -72,86 -28,20 -60,30 -94,30 -43,0 -78,-14 -105,-40 -27,-26 -40,-60 -40,-102 0,-41 13,-75 38,-102 25,-27 57,-40 95,-40 12,0 24,1 36,4 12,4 24,8 36,15 -10,-19 -18,-37 -22,-52 -5,-15 -7,-29 -7,-43 0,-37 13,-68 40,-92 26,-25 60,-37 101,-37 40,0 73,12 100,37 27,24 40,55 40,92 0,14 -2,28 -7,44 -5,15 -12,32 -22,51 12,-7 24,-11 36,-15 12,-3 24,-4 35,-4 39,0 71,13 96,40 25,26 37,60 37,102 0,42 -13,76 -40,102 -27,26 -62,40 -105,40 -35,0 -66,-10 -94,-30 -28,-20 -52,-48 -72,-86z"/>
  <path class="fil3" d="M5177 7095l0 -5c0,-71 -19,-127 -56,-166 -38,-39 -91,-60 -161,-62l0 -22 444 0 0 22c-70,2 -123,23 -161,62 -38,40 -56,95 -56,166l0 5c20,-38 44,-67 72,-86 28,-20 60,-30 94,-30 43,0 78,13 105,40 27,26 40,60 40,102 0,41 -13,75 -38,102 -25,27 -57,40 -95,40 -12,0 -24,-1 -36,-4 -12,-4 -24,-8 -36,-15 10,19 18,36 22,52 5,14 7,29 7,43 0,37 -13,68 -40,92 -26,25 -60,37 -101,37 -40,0 -73,-12 -100,-37 -27,-24 -40,-55 -40,-92 0,-14 2,-29 7,-44 5,-15 12,-32 22,-51 -12,7 -24,11 -36,15 -12,3 -24,4 -35,4 -39,0 -71,-13 -96,-40 -25,-27 -37,-61 -37,-102 0,-42 13,-76 40,-102 27,-27 62,-40 105,-40 35,0 66,10 94,30 28,19 52,48 72,86z"/>
  <path class="fil3" d="M3029 4989l0 26c0,396 104,703 311,921 207,219 504,334 889,344l0 122 -2461 0 0 -122c387,-10 685,-125 894,-344 208,-220 312,-527 312,-921l0 -26c-110,209 -244,367 -402,477 -157,109 -331,164 -523,164 -239,0 -433,-74 -581,-219 -148,-145 -222,-335 -222,-570 0,-226 70,-415 209,-564 140,-149 317,-223 530,-223 65,0 131,9 197,26 67,17 133,44 200,80 -56,-107 -97,-202 -123,-286 -25,-83 -39,-163 -39,-238 0,-207 74,-379 222,-515 149,-137 335,-206 561,-206 223,0 410,69 559,206 149,136 223,308 223,515 0,75 -13,155 -40,240 -27,84 -68,179 -125,284 69,-36 136,-63 201,-80 66,-17 132,-26 197,-26 213,0 389,74 528,222 138,149 208,337 208,565 0,235 -74,425 -223,570 -149,145 -344,219 -583,219 -191,0 -365,-55 -522,-164 -157,-110 -289,-268 -397,-477z"/>
 </g>
</svg>
